[
    {
        "title": "Frontend roadmap",
        "data": {
            "currentId": "3",
            "elements": [
                {
                    "id": "1",
                    "type": "customDefaultNode",
                    "data": {
                        "label": "HTML"
                    },
                    "position": {"x": 250, "y": 5}
                },
                {
                    "id": "2",
                    "type": "customInputNode",
                    "data": {
                        "label": "CSS"
                    },
                    "position": {"x": 200, "y": 75}
                },
                {
                    "id": "3",
                    "type": "customDefaultNode",
                    "data": {
                        "label": "JavaScript"
                    },
                    "position": {"x": 300, "y": 150}
                },
                {
                    "id": "e1-2",
                    "type": "default",
                    "source": 1,
                    "target": 2
                },
                {
                    "id": "e2-2",
                    "type": "default",
                    "source": 2,
                    "target": 3
                }
            ],
            "skills": [
                "HTML", "CSS", "JavaScript"
            ]
        },
        "created": "21-11-2021",
        "description": "Step by step guide to becoming a modern frontend developer in 2021"
    }
]